<?xml version="1.0" encoding="utf-8"?>
<!-- Generator: Adobe Illustrator 24.0.2, SVG Export Plug-In . SVG Version: 6.00 Build 0)  -->
<svg version="1.1" id="Слой_1" xmlns="http://www.w3.org/2000/svg" xmlns:xlink="http://www.w3.org/1999/xlink" x="0px" y="0px"
	 viewBox="0 0 501.1 453" style="enable-background:new 0 0 501.1 453;" xml:space="preserve">
<style type="text/css">
	.st0{stroke:#000000;stroke-miterlimit:10;}
</style>
<g>
	<path class="st0" d="M445.4,3.5H126c-27.8,0-50.3,22.3-50.3,49.7l-2.1,281.3H11.3c-4.4,0-7.8,3.9-7.8,8.3v38.7
		c0,36.2,29,65.9,64,67.5v0.5h269V449c2,0.1,3.2,0.5,4.6,0.5h0.2c37.3-0.2,67.4-30.6,67.2-68v-246h81.2c4.4,0,7.8-4,7.8-8.4v-71
		C497.6,27.2,474.3,3.7,445.4,3.5z M71,433.5L71,433.5c-28.5,0-51.5-23.5-51.5-52v-31h254v30.9c-0.1,18,7.1,35.3,19.8,48
		c1.4,1.4,2.8,2.1,4.2,4.1H71z M392.5,381.5c0,28.5-22.8,52-51.2,52h-0.2c-28.6-0.2-51.7-23.5-51.6-52.1v-38.6c0-4.5-3.5-8.2-8-8.3
		H89.6l2.1-281.2c0-18.6,15.4-33.8,34.3-33.8h281.7c-9.2,10-15.2,22.7-15.2,36.8V381.5z M481.5,56.2v63.3h-73V56.3
		c0-20,16.7-36.8,36.7-36.8h0.2C465.5,19.7,481.6,36.1,481.5,56.2L481.5,56.2z"/>
	<path class="st0" d="M341.1,452.5c-0.6,0-1.1-0.1-1.6-0.1v0.1h-275v-0.7c-16.7-1.5-32.4-9-44.3-21.5C7.5,417.1,0.5,399.7,0.5,381.5
		v-38.7c0-6.2,4.8-11.3,10.8-11.3h59.4l2-278.3c0-29,23.9-52.7,53.3-52.7h319.5c30.4,0.2,55.1,25.1,55.1,55.6v71
		c0,6.3-4.8,11.4-10.8,11.4h-78.3v243c0.2,38.9-31.3,70.7-70.2,71H341.1z M333.5,445.9l3.1,0.1c1.2,0,2.2,0.2,2.9,0.3
		c0.6,0.1,1.1,0.2,1.5,0.2h0.2c35.6-0.2,64.4-29.3,64.2-65v-249h84.2c2.6,0,4.8-2.5,4.8-5.4v-71c0-27.1-22-49.4-49.1-49.6H126
		c-26.1,0-47.3,21-47.3,46.7l-2.1,284.3H11.3c-2.6,0-4.8,2.4-4.8,5.3v38.7c0,34,27.4,62.9,61.1,64.5l2.9,0.1v0.3h263V445.9z
		 M341.3,436.5h-0.2c-30.2-0.2-54.7-24.9-54.6-55.1v-38.6c0-2.9-2.2-5.2-5.1-5.3H86.6l2.1-284.2c0-20.3,16.7-36.8,37.3-36.8h288.5
		l-4.6,5c-6.5,7.2-14.4,19-14.4,34.8v325.2C395.5,411.8,371.2,436.5,341.3,436.5z M92.7,331.5h188.9c6.1,0.2,10.9,5.2,10.9,11.3
		v38.6c-0.1,26.9,21.8,48.9,48.6,49.1h0.1c26.6,0,48.2-22,48.2-49V56.3c0-12,4-23.5,11.8-33.8H126c-17.2,0-31.3,13.8-31.3,30.8
		L92.7,331.5z M303.3,436.5H70.9c-30,0-54.4-24.7-54.4-55v-34h260v33.9c-0.1,17.1,6.8,33.8,18.9,45.9c0.4,0.4,0.8,0.7,1.2,1.1
		c0.9,0.8,2.1,1.7,3.3,3.3L303.3,436.5z M22.5,353.5v28c0,27,21.7,49,48.4,49h219.2c-12.5-13.1-19.7-30.9-19.6-49.1v-27.9H22.5z
		 M484.5,122.5h-79V56.3c0-21.6,18.2-39.8,39.7-39.8h0.2c21.7,0.2,39.2,18,39.1,39.7h-3h3L484.5,122.5L484.5,122.5z M411.5,116.5h67
		V56.1c0.1-18.4-14.8-33.5-33.1-33.6h-0.2c-18.3,0-33.7,15.5-33.7,33.8V116.5z"/>
</g>
<g>
	<path class="st0" d="M191.4,200.4l41.2,28.2c2.7,1.9,6.3,1.9,8.9,0l41.1-28.2c14.3-9.7,24.8-30.1,24.8-47.4V96
		c0.1-3-1.6-5.8-4.3-7.2l-62.8-30.9c-2.2-1.1-4.8-1.1-7,0l-62.7,30.8c-2.7,1.4-4.3,4.2-4.3,7.2V153
		C166.5,170.3,177.1,190.7,191.4,200.4z M182.5,100.9L237,74l54.5,27v52.1c0,12.1-7.9,27.4-17.9,34.2l-36.7,25.1l-36.6-25.1
		c-10-6.8-17.8-22.1-17.8-34.2L182.5,100.9L182.5,100.9z"/>
	<path class="st0" d="M237.1,233c-2.2,0-4.3-0.6-6.2-1.9l-41.2-28.2c-14.9-10.2-26.2-31.6-26.2-49.9V95.9c-0.1-4.1,2.2-8,5.9-9.9
		l62.7-30.8c3-1.5,6.6-1.5,9.6,0l62.8,30.9c3.7,1.9,6.1,5.8,5.9,10v57c0,18.3-11.2,39.7-26.1,49.9l-41.1,28.2
		C241.4,232.4,239.2,233,237.1,233z M236.9,60.1c-0.7,0-1.5,0.2-2.2,0.5L172,91.4c-1.6,0.8-2.6,2.6-2.6,4.4V153
		c0,16.5,10.1,35.8,23.5,44.9l0,0l41.2,28.2c1.7,1.1,3.9,1.1,5.5,0l41.1-28.2c13.4-9.2,23.5-28.5,23.5-44.9V96
		c0.1-1.9-1-3.7-2.6-4.5l-62.8-30.9C238.4,60.2,237.7,60.1,236.9,60.1z M236.9,216l-38.3-26.3c-10.7-7.3-19.1-23.4-19.1-36.6v-54
		L237,70.7l57.5,28.4V153c0,13.2-8.4,29.3-19.2,36.7L236.9,216z M185.5,102.7V153c0,11.3,7.4,25.5,16.5,31.7l34.9,24l35-24
		c9.1-6.2,16.6-20.4,16.6-31.7v-50.2L237,77.3L185.5,102.7z"/>
</g>
<g>
	<path class="st0" d="M223.5,165.1c1.5,1.5,3.5,2.4,5.7,2.4l0,0c2.1,0,4.2-0.9,5.7-2.4l31.8-31.8c3.1-3.1,3.1-8.2,0-11.3
		c-3.1-3.1-8.2-3.1-11.3,0l-26.1,26.1l-10.4-10.6c-3.1-3.1-8.2-3.2-11.3-0.1s-3.2,8.2-0.1,11.3L223.5,165.1z"/>
	<path class="st0" d="M229.2,170.5c-3,0-5.8-1.2-7.8-3.3l-16.1-16.3c-4.3-4.3-4.2-11.3,0.1-15.6s11.3-4.2,15.6,0.1l8.3,8.4l24-24
		c2.1-2.1,4.8-3.2,7.8-3.2l0,0c2.9,0,5.7,1.1,7.8,3.2c2.1,2.1,3.2,4.8,3.2,7.8c0,2.9-1.1,5.7-3.2,7.8l-31.8,31.8
		C234.9,169.3,232.1,170.5,229.2,170.5z M213,138.2c-1.3,0-2.6,0.5-3.5,1.5c-2,1.9-2,5.1,0,7.1l16.1,16.3c0.9,0.9,2.2,1.5,3.5,1.5
		s2.6-0.5,3.5-1.5l31.8-31.8c0.9-0.9,1.5-2.2,1.5-3.5s-0.5-2.6-1.5-3.5c-0.9-0.9-2.2-1.5-3.5-1.5l0,0c-1.3,0-2.6,0.5-3.5,1.5
		l-28.3,28.3l-12.6-12.7C215.7,138.7,214.4,138.2,213,138.2C213.1,138.2,213.1,138.2,213,138.2z"/>
</g>
<g>
	<path class="st0" d="M336.5,251.5h-192c-4.4,0-8,3.6-8,8c0,4.4,3.6,8,8,8h192c4.4,0,8-3.6,8-8C344.5,255.1,340.9,251.5,336.5,251.5
		z"/>
	<path class="st0" d="M336.5,270.5h-192c-6.1,0-11-4.9-11-11c0-6.1,4.9-11,11-11h192c6.1,0,11,4.9,11,11
		C347.5,265.6,342.6,270.5,336.5,270.5z M144.5,254.5c-2.8,0-5,2.2-5,5s2.2,5,5,5h192c2.8,0,5-2.2,5-5s-2.2-5-5-5H144.5z"/>
</g>
<g>
	<path class="st0" d="M336.5,288.5h-192c-4.4,0-8,3.6-8,8s3.6,8,8,8h192c4.4,0,8-3.6,8-8S340.9,288.5,336.5,288.5z"/>
	<path class="st0" d="M336.5,307.5h-192c-6.1,0-11-4.9-11-11s4.9-11,11-11h192c6.1,0,11,4.9,11,11S342.6,307.5,336.5,307.5z
		 M144.5,291.5c-2.8,0-5,2.2-5,5s2.2,5,5,5h192c2.8,0,5-2.2,5-5s-2.2-5-5-5H144.5z"/>
</g>
</svg>
